[
  {
    "id": 10001,
    "name": "Product Name",
    "price": 50,
    "photo": "assets/images/items/3.jpg",
    "isVisible": true
  },
  {
    "id": 10002,
    "name": "Product Name",
    "price": 55,
    "photo": "assets/images/items/2.jpg",
    "isVisible": true
  }
  ,
  {
    "id": 10003,
    "name": "Product Name 3",
    "price": "Rp. 35.000",
    "photo": "assets/images/items/1.jpg",
    "isVisible": false
  }
]